index
…
pdata <- read_csv(file = here("data/phage_counts.csv"))

## Parsed with column specification:
## cols(
##   subject = col_double(),
##   arm = col_character(),
##   timepoint = col_double(),
##   query = col_character(),
##   tax_id = col_double(),
##   parent_tax_id = col_double()
## )

pdata

## # A tibble: 151,065 x 6
##    subject arm   timepoint query               tax_id parent_tax_id
##      <dbl> <chr>     <dbl> <chr>                <dbl>         <dbl>
##  1      10 P             0 SRR5580239.1195243   38018         12333
##  2      10 P             0 SRR5580237.5787515  754039        196896
##  3      10 P             0 SRR5580233.2454247 1401669        196894
##  4      10 P             0 SRR5580236.759656  1555202        196896
##  5      10 P             0 SRR5580238.2213536  571950         12333
##  6      10 P             0 SRR5580236.979355  1289598       1758253
##  7      10 P             0 SRR5580237.6405085 1084719        686598
##  8      10 P             0 SRR5580237.8850639   38018         12333
##  9      10 P             0 SRR5580233.2634354   38018         12333
## 10      10 P             0 SRR5580237.5364855  879630        329380
## #  with 151,055 more rows

pdata_gr <- group_by(pdata, arm, timepoint, subject)
pdata_sum<-summarise(pdata_gr, ct=n())
pdata_sum

## # A tibble: 108 x 4
## # Groups:   arm, timepoint [6]
##    arm   timepoint subject    ct
##    <chr>     <dbl>   <dbl> <int>
##  1 M             0       4  1501
##  2 M             0      11  2674
##  3 M             0      12  1179
##  4 M             0      13   874
##  5 M             0      15   957
##  6 M             0      21  1123
##  7 M             0      23  1165
##  8 M             0      25  1272
##  9 M             0      29  1336
## 10 M             0      31  1493
## #  with 98 more rows
…
Most phages in a subject

arrange(pdata_sum, desc(ct))

## # A tibble: 108 x 4
## # Groups:   arm, timepoint [6]
##    arm   timepoint subject    ct
##    <chr>     <dbl>   <dbl> <int>
##  1 M             2      11  3183
##  2 M             4      11  2907
##  3 M             0      11  2674
##  4 P             4      26  2111
##  5 P             4       6  2040
##  6 P             2       6  1990
##  7 M             2      31  1873
##  8 P             2      37  1839
##  9 M             2      32  1728
## 10 M             4      34  1718
## #  with 98 more rows

pdata_str<-mutate(pdata, parent_tax_id=as.character(parent_tax_id))
pdata_str

## # A tibble: 151,065 x 6
##    subject arm   timepoint query               tax_id parent_tax_id
##      <dbl> <chr>     <dbl> <chr>                <dbl> <chr>        
##  1      10 P             0 SRR5580239.1195243   38018 12333        
##  2      10 P             0 SRR5580237.5787515  754039 196896       
##  3      10 P             0 SRR5580233.2454247 1401669 196894       
##  4      10 P             0 SRR5580236.759656  1555202 196896       
##  5      10 P             0 SRR5580238.2213536  571950 12333        
##  6      10 P             0 SRR5580236.979355  1289598 1758253      
##  7      10 P             0 SRR5580237.6405085 1084719 686598       
##  8      10 P             0 SRR5580237.8850639   38018 12333        
##  9      10 P             0 SRR5580233.2634354   38018 12333        
## 10      10 P             0 SRR5580237.5364855  879630 329380       
## #  with 151,055 more rows

Most frequent parent taxons

pdata_tax <- group_by(pdata_str, parent_tax_id, timepoint, arm)
pdata_lot<-summarise(pdata_tax, ct=n()) 
pdata_lot<-filter(pdata_lot, ct>400)
pdata_lot<-arrange(pdata_lot, desc(ct))
pdata_lot

## # A tibble: 32 x 4
## # Groups:   parent_tax_id, timepoint [17]
##    parent_tax_id timepoint arm      ct
##    <chr>             <dbl> <chr> <int>
##  1 12333                 2 M     13102
##  2 12333                 2 P     11811
##  3 12333                 0 M     11769
##  4 12333                 4 M     11449
##  5 12333                 0 P     11236
##  6 12333                 4 P     11190
##  7 196896                2 M      4210
##  8 196896                4 M      4155
##  9 196896                0 M      4060
## 10 196894                2 M      3716
## #  with 22 more rows
…
